{
  "routes": [
    {
      "method": "GET",
      "path": "/user",
      "handler": "User.find",
      "config": {
        "policies": []
      }
    },
    {
      "method": "POST",
      "path": "/user/cab/search",
      "handler": "User.searchCabs",
      "config": {
        "policies": []
      }
    },
    {
      "method": "POST",
      "path": "/user/cab/book",
      "handler": "User.bookCab",
      "config": {
        "policies": []
      }
    },

    {
      "method": "GET",
      "path": "/user/count",
      "handler": "User.count",
      "config": {
        "policies": []
      }
    },
    {
      "method": "GET",
      "path": "/user/:_id",
      "handler": "User.findOne",
      "config": {
        "policies": []
      }
    },
    {
      "method": "POST",
      "path": "/user",
      "handler": "User.create",
      "config": {
        "policies": []
      }
    },
    {
      "method": "PUT",
      "path": "/user/:_id",
      "handler": "User.update",
      "config": {
        "policies": []
      }
    },
    {
      "method": "DELETE",
      "path": "/user/:_id",
      "handler": "User.destroy",
      "config": {
        "policies": []
      }
    }
  ]
}
